Match,Date,Vs,Ground,HowDismissed,Runs,Aggr,Avg,BF,SR
1,18/12/1989,Pakistan,Jinnah Stadium (Gujwranwala),c Wasim Akram b Waqar Younis,0,0,0,2,
2,1/3/1990,New Zealand,Carisbrook,c & b S Thomson,0,0,0,2,
3,6/3/1990,New Zealand,Basin Reserve,c I Smith b S Thomson,36,36,12,39,83.72
4,25/04/1990,Sri Lanka,Sharjah Cricket Stadium,run out,10,46,11.5,12,83.64
5,27/04/1990,Pakistan,Sharjah Cricket Stadium,c Saeed Anwar b Imran Khan,20,66,13.2,25,82.5
6,18/07/1990,England,Headingley,b D Malcolm,19,85,14.17,35,73.91
7,20/07/1990,England,Trent Bridge,b A Fraser,31,116,16.57,26,82.27
8,1/12/1990,Sri Lanka,Vidarbha Cricket Association Ground,b R Ratnayake,36,152,19,22,93.25
9,5/12/1990,Sri Lanka,Nehru Stadium (Pune),b G Labrooy,53,205,22.78,41,100.49
10,8/12/1990,Sri Lanka,Nehru Stadium (Margao),c & b S Anurasiri,30,235,23.5,29,100.86
12,28/12/1990,Sri Lanka,Barabati Stadium,lbw b A Ranatunga,4,239,21.73,11,97.95
13,4/1/1991,Sri Lanka,Eden Gardens,lbw b R Ratnayake,53,292,24.33,70,92.99
14,18/10/1991,Pakistan,Sharjah Cricket Stadium,not out,52,344,28.67,40,97.18
15,19/10/1991,West Indies,Sharjah Cricket Stadium,run out,22,366,28.15,27,96.06
16,22/10/1991,West Indies,Sharjah Cricket Stadium,not out,11,377,29,27,92.4
17,23/10/1991,Pakistan,Sharjah Cricket Stadium,c sub b Salim Malik,49,426,30.43,38,95.52
18,25/10/1991,Pakistan,Sharjah Cricket Stadium,lbw b Aaqib Javed,0,426,28.4,1,95.3
19,10/11/1991,South Africa,Eden Gardens,c R Snell b A Donald,62,488,30.5,73,93.85
20,12/11/1991,South Africa,Captain Roop Singh Stadium,c D Richardson b C Matthews,4,492,28.94,8,93.18
21,14/11/1991,South Africa,Jawaharlal Nehru Stadium (Delhi),c S Cook b A Donald,1,493,27.39,3,92.84
22,6/12/1991,West Indies,W.A.C.A. Ground,c R Richardson b A Cummins,1,494,26,9,91.48
23,8/12/1991,Australia,W.A.C.A. Ground,c P Taylor b T Moody,36,530,26.5,65,87.6
24,10/12/1991,Australia,Bellerive Oval,c S Waugh b P Taylor,57,587,27.95,107,82.44
25,14/12/1991,West Indies,Adelaide Oval,c & b K Arthurton,48,635,28.86,57,82.57
26,15/12/1991,Australia,Adelaide Oval,c D Jones b S Waugh,21,656,28.52,35,81.59
27,11/1/1992,West Indies,Brisbane Cricket Ground,c sub b A Cummins,77,733,30.54,127,78.73
28,14/01/1992,Australia,Sydney Cricket Ground,run out,31,764,30.56,44,78.36
29,16/01/1992,West Indies,Melbourne Cricket Ground,not out,57,821,32.84,88,77.23
30,18/01/1992,Australia,Melbourne Cricket Ground,c M Whitney b T Moody,4,825,31.73,10,76.89
31,20/01/1992,Australia,Sydney Cricket Ground,c M Whitney b S Waugh,69,894,33.11,100,76.21
32,22/02/1992,England,W.A.C.A. Ground,c A Stewart b I Botham,35,929,33.18,44,76.34
34,1/3/1992,Australia,Brisbane Cricket Ground,c S Waugh b T Moody,11,940,32.41,19,76.05
35,4/3/1992,Pakistan,Sydney Cricket Ground,not out,54,994,34.28,62,76.58
36,7/3/1992,Zimbabwe,Seddon Park,c A Campbell b M Burmester,81,1075,35.83,77,78.18
37,10/3/1992,West Indies,Basin Reserve,c D Williams b C Ambrose,4,1079,34.81,11,77.85
38,12/3/1992,New Zealand,Carisbrook,c I Smith b C Harris,84,1163,36.34,107,77.9
39,15/03/1992,South Africa,Adelaide Oval,c K Wessels b A Kuiper,14,1177,35.67,14,78.1
40,25/10/1992,Zimbabwe,Harare Sports Club,c D Brain b G Crocker,39,1216,35.76,56,77.8
41,7/12/1992,South Africa,Newlands,b B McMillan,15,1231,35.17,27,77.42
42,9/12/1992,South Africa,St George's Park,c D Richardson b D Callaghan,10,1241,34.47,36,76.32
43,11/12/1992,South Africa,SuperSport Park,c D Richardson b C Matthews,22,1263,34.14,24,76.55
44,13/12/1992,South Africa,The Wanderers Stadium,c B McMillan b A Donald,21,1284,33.79,44,75.8
45,15/12/1992,South Africa,Chevrolet Park,b P De Villiers,32,1316,33.74,52,75.37
46,17/12/1992,South Africa,Kingsmead,c W Cronje b M Pringle,23,1339,33.48,39,75.01
47,19/12/1992,South Africa,Buffalo Park,c D Richardson b C Matthews,21,1360,33.17,38,74.6
48,18/01/1993,England,Sawai Mansingh Stadium,not out,82,1442,35.17,81,75.74
49,21/01/1993,England,Sector 16 Stadium,lbw b P De Freitas,1,1443,34.36,5,75.59
50,26/02/1993,England,M.Chinnaswamy Stadium,c G Hick b C Lewis,3,1446,33.63,6,75.51
51,1/3/1993,England,Keenan Stadium,b P Jarvis,24,1470,33.41,32,75.5
52,4/3/1993,England,Captain Roop Singh Stadium,b P Jarvis,5,1475,32.78,6,75.52
53,5/3/1993,England,Captain Roop Singh Stadium,c sub b C Lewis,34,1509,32.8,30,76.1
54,19/03/1993,Zimbabwe,Nahar Singh Stadium,c & b G Flower,3,1512,32.17,9,75.9
55,22/03/1993,Zimbabwe,Nehru Stadium (Guwahati),not out,8,1520,32.34,6,76.08
57,25/07/1993,Sri Lanka,R. Premadasa Stadium,c A Gurusinha b S Jayasuriya,21,1541,32.1,39,75.65
58,12/8/1993,Sri Lanka,R. Premadasa Stadium,run out,15,1556,31.76,30,75.28
59,14/08/1993,Sri Lanka,Tyronne Fernando Stadium,c M Muralitharan b S Jayasuriya,25,1581,31.62,39,75.07
60,7/11/1993,Sri Lanka,Green Park,not out,26,1607,32.14,30,75.23
61,16/11/1993,West Indies,Sardar Patel Stadium,lbw b C Walsh,2,1609,31.55,8,75.05
62,18/11/1993,Zimbabwe,Nehru Stadium (Indore),c & b H Streak,24,1633,31.4,16,75.6
63,22/11/1993,South Africa,Punjab Cricket Association Stadium,c D Richardson b W Cronje,3,1636,30.87,25,74.87
64,24/11/1993,South Africa,Eden Gardens,c D Richardson b R Snell,15,1651,30.57,31,74.5
65,27/11/1993,West Indies,Eden Gardens,not out,28,1679,31.09,43,74.32
66,15/02/1994,Sri Lanka,Madhavrao Scindia Cricket Ground,c A Ranatunga b R Kalpage,1,1680,30.55,5,74.2
67,18/02/1994,Sri Lanka,Lal Bahadur Shastri Stadium,not out,11,1691,30.75,18,74.1
68,20/02/1994,Sri Lanka,Gandhi Stadium,run out,52,1743,31.13,63,74.33
69,25/03/1994,New Zealand,McLean Park,c K Rutherford b D Nash,15,1758,30.84,19,74.37
70,27/03/1994,New Zealand,Eden Park,c & b M Hart,82,1840,31.72,49,76.25
71,30/03/1994,New Zealand,Basin Reserve,lbw b G Larsen,63,1903,32.25,75,76.49
72,2/4/1994,New Zealand,AMI Stadium,b G Larsen,40,1943,32.38,26,77.29
73,13/04/1994,United Arab Emirates,Sharjah Cricket Stadium,c Imtiaz Abbasi b Sultan Zarawani,63,2006,32.89,77,77.42
74,15/04/1994,Pakistan,Sharjah Cricket Stadium,c Basit Ali b Akram Raza,73,2079,33.53,64,78.31
75,19/04/1994,Australia,Sharjah Cricket Stadium,c M Taylor b G McGrath,6,2085,33.1,7,78.32
76,22/04/1994,Pakistan,Sharjah Cricket Stadium,c Aamir Sohail b Ata-Ur-Rehman,24,2109,32.95,26,78.46
77,4/9/1994,Sri Lanka,R. Premadasa Stadium,not out,11,2120,33.13,16,78.4
78,5/9/1994,Sri Lanka,R. Premadasa Stadium,c H Dharmasena b G Wickremasinghe,6,2126,32.71,5,78.48
79,9/9/1994,Australia,R. Premadasa Stadium,b C McDermott,110,2236,33.88,130,78.76
80,17/09/1994,Sri Lanka,Sinhalese Sports Club Ground,c P de Silva b W Vaas,0,2236,33.37,2,78.7
81,17/10/1994,West Indies,Nahar Singh Stadium,c B Lara b C Walsh,0,2236,32.88,4,78.59
82,20/10/1994,West Indies,Wankhede Stadium,c C Hooper b C Cuffy,0,2236,32.41,4,78.48
83,23/10/1994,West Indies,M.A. Chidambaram Stadium,c C Hooper b A Cummins,8,2244,32.06,24,78.11
84,28/10/1994,New Zealand,Reliance Stadium,run out,115,2359,33.23,136,78.4
85,30/10/1994,West Indies,Green Park,b A Cummins,34,2393,33.24,47,78.3
86,3/11/1994,New Zealand,Feroz Shah Kotla,b M Hart,62,2455,33.63,54,78.94
87,5/11/1994,West Indies,Eden Gardens,c S Williams b C Cuffy,66,2521,34.07,68,79.33
88,7/11/1994,West Indies,Indira Priyadarshini Stadium,c A Cummins b C Hooper,54,2575,34.33,64,79.43
89,9/11/1994,West Indies,Barabati Stadium,b P Simmons,88,2663,35.04,112,79.4
90,11/11/1994,West Indies,Sawai Mansingh Stadium,c J Adams b B Browne,105,2768,35.95,134,79.36
91,16/02/1995,New Zealand,McLean Park,c S Thomson b D Morrison,13,2781,35.65,15,79.39
92,18/02/1995,South Africa,Seddon Park,c P Symcox b W Cronje,37,2818,35.67,51,79.29
93,22/02/1995,Australia,Carisbrook,c M Taylor b J Angel,47,2865,35.81,40,79.72
94,5/4/1995,Bangladesh,Sharjah Cricket Stadium,b Mohammad Rafique,48,2913,35.96,30,80.38
95,7/4/1995,Pakistan,Sharjah Cricket Stadium,c Moin Khan b Aaqib Javed,4,2917,35.57,9,80.29
96,9/4/1995,Sri Lanka,Sharjah Cricket Stadium,not out,112,3029,36.94,107,80.99
97,14/04/1995,Sri Lanka,Sharjah Cricket Stadium,c S Jayasuriya b C Ramanayake,41,3070,36.99,41,81.2
98,15/11/1995,New Zealand,Keenan Stadium,c M Greatbatch b D Morrison,30,3100,36.9,20,81.56
99,18/11/1995,New Zealand,Gandhi Sports Complex Ground,c L Germon b S Thomson,39,3139,36.93,51,81.49
100,24/11/1995,New Zealand,Nehru Stadium (Pune),c G Larsen b D Morrison,7,3146,36.58,11,81.44
101,26/11/1995,New Zealand,Vidarbha Cricket Association Ground,run out,65,3211,36.91,59,81.87
102,29/11/1995,New Zealand,Brabourne Stadium,b D Morrison,1,3212,36.5,4,81.81
103,18/02/1996,Kenya,Barabati Stadium,not out,127,3339,37.94,138,82.16
104,21/02/1996,West Indies,Captain Roop Singh Stadium,run out,70,3409,38.3,91,82.05
105,27/02/1996,Australia,Wankhede Stadium,st I Healy b M Waugh,90,3499,38.88,84,82.54
106,2/3/1996,Sri Lanka,Feroz Shah Kotla,run out,137,3636,39.96,137,83.09
107,6/3/1996,Zimbabwe,Green Park,b H Streak,3,3639,39.55,12,82.93
108,9/3/1996,Pakistan,M.Chinnaswamy Stadium,b Ata-Ur-Rehman,31,3670,39.46,59,82.53
109,13/03/1996,Sri Lanka,Eden Gardens,st R Kaluwitharana b S Jayasuriya,65,3735,39.73,88,82.36
110,3/4/1996,Sri Lanka,Padang Cricket Ground,c S Jayasuriya b G Wickremasinghe,28,3763,39.61,31,82.41
111,5/4/1996,Pakistan,Padang Cricket Ground,st Rashid Latif b Saqlain Mushtaq,100,3863,40.24,111,82.6
112,12/4/1996,Pakistan,Sharjah Cricket Stadium,c Saeed Anwar b Aaqib Javed,1,3864,39.84,5,82.53
113,14/04/1996,South Africa,Sharjah Cricket Stadium,c G Kirsten b P De Villiers,2,3866,39.45,15,82.31
114,15/04/1996,Pakistan,Sharjah Cricket Stadium,c Aamir Sohail b Waqar Younis,118,3984,40.24,140,82.37
115,17/04/1996,South Africa,Sharjah Cricket Stadium,c G Kirsten b P De Villiers,17,4001,40.01,26,82.27
116,19/04/1996,South Africa,Sharjah Cricket Stadium,run out,57,4058,40.18,71,82.25
117,23/05/1996,England,Kennington Oval,lbw b P Martin,30,4088,40.08,19,82.54
118,25/05/1996,England,Headingley,run out,6,4094,39.75,19,82.34
119,26/05/1996,England,Old Trafford,c G Hick b D Cork,1,4095,39.38,11,82.18
120,28/08/1996,Sri Lanka,R. Premadasa Stadium,run out,110,4205,40.05,138,82.11
121,1/9/1996,Zimbabwe,Sinhalese Sports Club Ground,c B Strang b H Streak,40,4245,40.05,46,82.16
122,6/9/1996,Australia,Sinhalese Sports Club Ground,c S Waugh b G McGrath,7,4252,39.74,11,82.12
123,16/09/1996,Pakistan,"Cricket, Skating & Curling Club",not out,89,4341,40.57,89,82.42
124,17/09/1996,Pakistan,"Cricket, Skating & Curling Club",c Wasim Akram b Azhar Mahmood,20,4361,40.38,23,82.44
125,18/09/1996,Pakistan,"Cricket, Skating & Curling Club",c Aamir Sohail b Wasim Akram,2,4363,40.03,13,82.27
126,21/09/1996,Pakistan,"Cricket, Skating & Curling Club",c Salim Malik b Wasim Akram,3,4366,39.69,9,82.19
127,23/09/1996,Pakistan,"Cricket, Skating & Curling Club",run out,23,4389,39.54,44,81.95
128,17/10/1996,South Africa,Lal Bahadur Shastri Stadium,c D Cullinan b P De Villiers,11,4400,39.29,8,82.03
129,21/10/1996,Australia,M.Chinnaswamy Stadium,lbw b S Waugh,88,4488,39.72,111,81.97
130,23/10/1996,South Africa,Sawai Mansingh Stadium,c G Kirsten b B McMillan,64,4552,39.93,93,81.75
131,29/10/1996,South Africa,Madhavrao Scindia Cricket Ground,lbw b A Donald,28,4580,39.83,38,81.7
132,3/11/1996,Australia,Punjab Cricket Association Stadium,c S Law b M Waugh,62,4642,40.02,60,81.93
133,6/11/1996,South Africa,Wankhede Stadium,c W Cronje b N Boje,67,4709,40.25,88,81.84
134,14/12/1996,South Africa,Wankhede Stadium,st G Kirsten b N Boje,114,4823,40.87,126,82.02
135,23/01/1997,South Africa,Chevrolet Park,b S Pollock,0,4823,40.53,4,81.97
136,27/01/1997,Zimbabwe,Boland Park,c A Campbell b E Brandes,6,4829,40.24,8,81.96
137,2/2/1997,South Africa,St George's Park,b A Donald,1,4830,39.92,14,81.78
138,4/2/1997,South Africa,Buffalo Park,c D Cullinan b L Klusener,14,4844,39.7,24,81.69
139,7/2/1997,Zimbabwe,SuperSport Park,c A Waller b A Campbell,41,4885,39.72,56,81.61
140,9/2/1997,Zimbabwe,Willowmoore Park,c A Campbell b C Evans,104,4989,40.23,97,82.02
141,12/2/1997,South Africa,Kingsmead,c J Rhodes b L Klusener,32,5021,40.17,27,82.18
142,13/02/1997,South Africa,Kingsmead,c R Bryson b W Cronje,45,5066,40.21,33,82.47
143,15/02/1997,Zimbabwe,Queens Sports Club,c G Flower b E Brandes,13,5079,39.99,15,82.48
144,26/04/1997,West Indies,Queen's Park Oval,c C Browne b C Ambrose,44,5123,40.02,43,82.62
145,27/04/1997,West Indies,Queen's Park Oval,not out,65,5188,40.53,70,82.73
146,30/04/1997,West Indies,Arnos Vale Ground,b C Walsh,9,5197,40.29,15,82.68
147,3/5/1997,West Indies,Kensington Oval,c B Lara b C Walsh,1,5198,39.98,11,82.55
148,14/05/1997,New Zealand,M.Chinnaswamy Stadium,b N Astle,117,5315,40.57,137,82.61
149,17/05/1997,Sri Lanka,Wankhede Stadium,c H Dharmasena b K de Silva,2,5317,40.28,4,82.59
150,21/05/1997,Pakistan,M.A. Chidambaram Stadium,c Inzamam-ul-Haq b Aaqib Javed,4,5321,40.01,7,82.56
151,18/07/1997,Sri Lanka,R. Premadasa Stadium,b W Vaas,21,5342,39.87,28,82.53
153,24/07/1997,Bangladesh,Sinhalese Sports Club Ground,b Enamul Haque,28,5370,39.78,21,82.69
154,26/07/1997,Sri Lanka,R. Premadasa Stadium,c R Kalpage b M Muralitharan,53,5423,39.88,67,82.66
155,17/08/1997,Sri Lanka,R. Premadasa Stadium,c M Muralitharan b W Vaas,27,5450,39.78,28,82.71
156,20/08/1997,Sri Lanka,R. Premadasa Stadium,lbw b W Vaas,6,5456,39.54,6,82.73
157,23/08/1997,Sri Lanka,Sinhalese Sports Club Ground,c A Ranatunga b D Liyanage,27,5483,39.45,31,82.75
158,24/08/1997,Sri Lanka,Sinhalese Sports Club Ground,c S de Silva b K de Silva,39,5522,39.44,32,82.94
159,13/09/1997,Pakistan,"Cricket, Skating & Curling Club",c Mohammad Akram b Azhar Mahmood,17,5539,39.28,54,82.52
160,14/09/1997,Pakistan,"Cricket, Skating & Curling Club",not out,25,5564,39.46,45,82.34
162,18/09/1997,Pakistan,"Cricket, Skating & Curling Club",c Moin Khan b Mohammad Akram,0,5564,39.18,10,82.22
163,20/09/1997,Pakistan,"Cricket, Skating & Curling Club",c Moin Khan b Shahid Nazir,6,5570,38.95,7,82.23
164,21/09/1997,Pakistan,"Cricket, Skating & Curling Club",lbw b Azhar Mahmood,51,5621,39.03,64,82.2
165,28/09/1997,Pakistan,Niaz Stadium,b Waqar Younis,2,5623,38.78,11,82.1
166,30/09/1997,Pakistan,National Stadium,c Moin Khan b Azhar Mahmood,21,5644,38.66,18,82.19
167,2/10/1997,Pakistan,Gaddafi Stadium,c Inzamam-ul-Haq b Aaqib Javed,7,5651,38.44,11,82.16
168,11/12/1997,England,Sharjah Cricket Stadium,st A Stewart b M Fleming,91,5742,38.8,87,82.44
169,14/12/1997,Pakistan,Sharjah Cricket Stadium,c Inzamam-ul-Haq b Manzoor Akhtar,3,5745,38.56,4,82.44
170,16/12/1997,West Indies,Sharjah Cricket Stadium,run out,1,5746,38.31,2,82.43
171,22/12/1997,Sri Lanka,Nehru Stadium (Guwahati),not out,82,5828,38.85,86,82.58
173,28/12/1997,Sri Lanka,Nehru Stadium (Margao),c K de Silva b M Muralitharan,6,5834,38.64,13,82.52
174,10/1/1998,Bangladesh,Bangabandhu National Stadium,c & b Mohammad Rafique,54,5888,38.74,76,82.4
175,11/1/1998,Pakistan,Bangabandhu National Stadium,st Rashid Latif b Saqlain Mushtaq,67,5955,38.92,44,82.82
176,14/01/1998,Pakistan,Bangabandhu National Stadium,b Shahid Afridi,95,6050,39.29,78,83.24
177,16/01/1998,Pakistan,Bangabandhu National Stadium,b Azhar Mahmood,1,6051,39.04,6,83.19
178,18/01/1998,Pakistan,Bangabandhu National Stadium,c Azhar Mahmood b Shahid Afridi,41,6092,39.05,26,83.45
179,1/4/1998,Australia,Nehru Stadium (Kochi),c R Ponting b M Kasprowicz,8,6100,38.85,11,83.44
180,5/4/1998,Zimbabwe,Reliance Stadium,run out,5,6105,38.64,17,83.31
181,7/4/1998,Australia,Green Park,c sub b S Warne,100,6205,39.03,89,83.66
182,9/4/1998,Zimbabwe,Barabati Stadium,c A Flower b M Mbangwa,1,6206,38.79,2,83.65
183,14/04/1998,Australia,Feroz Shah Kotla,c A Gilchrist b D Fleming,15,6221,38.64,24,83.58
184,17/04/1998,New Zealand,Sharjah Cricket Stadium,c S Doull b C Harris,40,6261,38.65,41,83.66
185,19/04/1998,Australia,Sharjah Cricket Stadium,c A Gilchrist b D Fleming,80,6341,38.9,72,83.92
186,20/04/1998,New Zealand,Sharjah Cricket Stadium,run out,38,6379,38.9,58,83.78
187,22/04/1998,Australia,Sharjah Cricket Stadium,c A Gilchrist b D Fleming,143,6522,39.53,131,84.21
188,24/04/1998,Australia,Sharjah Cricket Stadium,lbw b M Kasprowicz,134,6656,40.1,131,84.51
189,25/05/1998,Bangladesh,Wankhede Stadium,c Aminul Islam b Athar Ali Khan,33,6689,40.05,29,84.62
190,28/05/1998,Kenya,Captain Roop Singh Stadium,c A Karim b M Suji,18,6707,39.92,25,84.58
191,31/05/1998,Kenya,Eden Gardens,not out,100,6807,40.52,103,84.74
192,19/06/1998,Sri Lanka,R. Premadasa Stadium,c M Atapattu b M Muralitharan,65,6872,40.66,50,85.02
193,23/06/1998,New Zealand,R. Premadasa Stadium,c & b C Harris,53,6925,40.74,36,85.29
194,1/7/1998,Sri Lanka,Sinhalese Sports Club Ground,c & b H Dharmasena,17,6942,40.6,16,85.33
196,7/7/1998,Sri Lanka,R. Premadasa Stadium,st R Kaluwitharana b S Jayasuriya,128,7070,41.1,131,85.53
197,20/09/1998,Pakistan,"Cricket, Skating & Curling Club",c Inzamam-ul-Haq b Aamir Sohail,77,7147,41.31,109,85.34
198,26/09/1998,Zimbabwe,Queens Sports Club,not out,127,7274,42.05,130,85.53
199,27/09/1998,Zimbabwe,Queens Sports Club,c C Wishart b M Nkala,29,7303,41.97,21,85.66
200,30/09/1998,Zimbabwe,Harare Sports Club,c C Evans b H Streak,2,7305,41.74,6,85.62
201,28/10/1998,Australia,Bangabandhu National Stadium,run out,141,7446,42.31,128,85.98
202,31/10/1998,West Indies,Bangabandhu National Stadium,c C Hooper b M Dillon,8,7454,42.11,14,85.93
203,6/11/1998,Sri Lanka,Sharjah Cricket Stadium,c R Kaluwitharana b W Vaas,3,7457,41.89,6,85.91
204,8/11/1998,Zimbabwe,Sharjah Cricket Stadium,not out,118,7575,42.56,112,86.16
205,9/11/1998,Sri Lanka,Sharjah Cricket Stadium,c M Atapattu b G Wickremasinghe,18,7593,42.42,28,86.09
206,11/11/1998,Zimbabwe,Sharjah Cricket Stadium,c G Flower b H Olonga,11,7604,42.24,12,86.1
207,13/11/1998,Zimbabwe,Sharjah Cricket Stadium,not out,124,7728,42.93,92,86.6
208,9/1/1999,New Zealand,Owen Delany Park,c C Harris b C Cairns,0,7728,42.7,5,86.55
209,12/1/1999,New Zealand,McLean Park,c B Young b D Nash,23,7751,42.59,19,86.62
210,14/01/1999,New Zealand,Basin Reserve,st A Parore b G Larsen,45,7796,42.6,42,86.72
211,16/01/1999,New Zealand,Eden Park,lbw b C Cairns,5,7801,42.4,12,86.66
212,15/05/1999,South Africa,County Ground (Hove),c M Boucher b L Klusener,28,7829,42.32,46,86.53
213,23/05/1999,Kenya,County Ground (Bristol),not out,140,7969,43.08,101,87.1
214,26/05/1999,Sri Lanka,County Ground (Taunton),b S Jayasuriya,2,7971,42.85,3,87.1
215,29/05/1999,England,Edgbaston,c G Hick b M Ealham,22,7993,42.74,40,86.96
216,4/6/1999,Australia,Kennington Oval,c A Gilchrist b G McGrath,0,7993,42.52,4,86.92
217,8/6/1999,Pakistan,Old Trafford,c Saqlain Mushtaq b Azhar Mahmood,45,8038,42.53,65,86.79
218,12/6/1999,New Zealand,Trent Bridge,b D Nash,16,8054,42.39,22,86.76
219,23/08/1999,Australia,Galle International Stadium,c D Lehmann b T Moody,14,8068,42.24,33,86.6
220,25/08/1999,Sri Lanka,R. Premadasa Stadium,run out,37,8105,42.21,58,86.46
221,29/08/1999,Sri Lanka,Sinhalese Sports Club Ground,c M Muralitharan b D Zoysa,120,8225,42.62,141,86.44
222,4/9/1999,Zimbabwe,Kallang Ground,c S Carlisle b A Whittall,85,8310,42.84,72,86.68
223,7/9/1999,West Indies,Kallang Ground,c R Jacobs b C Walsh,40,8350,42.82,65,86.51
224,8/9/1999,West Indies,Kallang Ground,c H Bryan b C Walsh,0,8350,42.6,6,86.46
225,5/11/1999,New Zealand,Madhavrao Scindia Cricket Ground,c C Cairns b S Styris,32,8382,42.55,31,86.51
226,8/11/1999,New Zealand,Lal Bahadur Shastri Stadium,not out,186,8568,43.49,150,87.08
227,11/11/1999,New Zealand,Captain Roop Singh Stadium,c S Fleming b C Drum,1,8569,43.28,23,86.89
228,14/11/1999,New Zealand,Nehru Stadium (Guwahati),c C Spearman b C Drum,2,8571,43.07,10,86.82
229,17/11/1999,New Zealand,Feroz Shah Kotla,c & b D Vettori,0,8571,42.86,3,86.79
230,10/1/2000,Pakistan,Brisbane Cricket Ground,b Abdul Razzaq,13,8584,42.71,26,86.7
231,12/1/2000,Australia,Melbourne Cricket Ground,run out,12,8596,42.55,11,86.72
232,14/01/2000,Australia,Sydney Cricket Ground,c A Gilchrist b G McGrath,1,8597,42.35,11,86.64
233,21/01/2000,Pakistan,Bellerive Oval,b Abdul Razzaq,93,8690,42.6,103,86.67
234,25/01/2000,Pakistan,Adelaide Oval,c Moin Khan b Abdul Razzaq,41,8731,42.59,46,86.69
235,26/01/2000,Australia,Adelaide Oval,c S MacGill b B Lee,18,8749,42.47,28,86.62
236,28/01/2000,Pakistan,W.A.C.A. Ground,c Moin Khan b Waqar Younis,17,8766,42.35,14,86.67
237,30/01/2000,Australia,W.A.C.A. Ground,b D Fleming,3,8769,42.16,21,86.52
238,9/3/2000,South Africa,Nehru Stadium (Kochi),c H Williams b M Hayward,26,8795,42.08,25,86.56
239,12/3/2000,South Africa,Keenan Stadium,c W Cronje b S Pollock,21,8816,41.98,31,86.51
240,15/03/2000,South Africa,Nahar Singh Stadium,lbw b S Pollock,12,8828,41.84,28,86.39
241,17/03/2000,South Africa,Reliance Stadium,c S Elworthy b J Kallis,122,8950,42.22,138,86.41
242,19/03/2000,South Africa,Vidarbha Cricket Association Ground,c S Elworthy b D Crookes,93,9043,42.46,89,86.57
243,22/03/2000,South Africa,Sharjah Cricket Stadium,b S Pollock,5,9048,42.28,8,86.55
244,23/03/2000,Pakistan,Sharjah Cricket Stadium,lbw b Shoaib Akhtar,11,9059,42.13,28,86.42
245,26/03/2000,Pakistan,Sharjah Cricket Stadium,b Wasim Akram,10,9069,41.99,18,86.37
246,27/03/2000,South Africa,Sharjah Cricket Stadium,run out,39,9108,41.97,68,86.18
247,30/05/2000,Bangladesh,Bangabandhu National Stadium,c Habibul Bashar b Mushfiqur Rahman,36,9144,41.94,25,86.32
248,1/6/2000,Sri Lanka,Bangabandhu National Stadium,c D Jayawardene b K Weeraratne,93,9237,42.18,95,86.42
249,3/6/2000,Pakistan,Bangabandhu National Stadium,lbw b Abdul Razzaq,25,9262,42.1,30,86.42
250,3/10/2000,Kenya,Gymkhana Club Ground,lbw b A Suji,25,9287,42.02,35,86.37
251,7/10/2000,Australia,Gymkhana Club Ground,c D Martyn b B Lee,38,9325,42,37,86.42
252,13/10/2000,South Africa,Gymkhana Club Ground,c L Klusener b J Kallis,39,9364,41.99,50,86.38
253,15/10/2000,New Zealand,Gymkhana Club Ground,run out,69,9433,42.11,83,86.36
254,20/10/2000,Sri Lanka,Sharjah Cricket Stadium,run out,101,9534,42.37,140,86.18
255,22/10/2000,Zimbabwe,Sharjah Cricket Stadium,c A Flower b H Streak,8,9542,42.22,15,86.13
256,26/10/2000,Zimbabwe,Sharjah Cricket Stadium,c P Strang b T Friend,4,9546,42.05,10,86.09
257,27/10/2000,Sri Lanka,Sharjah Cricket Stadium,c W Vaas b M Muralitharan,61,9607,42.14,54,86.22
258,29/10/2000,Sri Lanka,Sharjah Cricket Stadium,c & b W Vaas,5,9612,41.97,11,86.18
259,2/12/2000,Zimbabwe,Barabati Stadium,c H Streak b D Viljoen,44,9656,41.98,49,86.2
260,5/12/2000,Zimbabwe,Sardar Patel Stadium,c A Flower b T Friend,8,9664,41.84,20,86.12
261,8/12/2000,Zimbabwe,Barkatullah Khan Stadium,c M Nkala b H Streak,146,9810,42.28,153,86.24
262,11/12/2000,Zimbabwe,Green Park,lbw b T Friend,62,9872,42.37,86,86.14
263,14/12/2000,Zimbabwe,Madhavrao Scindia Cricket Ground,b M Nkala,27,9899,42.3,38,86.09
264,25/03/2001,Australia,M.Chinnaswamy Stadium,run out,35,9934,42.27,26,86.2
265,28/03/2001,Australia,Nehru Stadium (Pune),c D Lehmann b D Fleming,32,9966,42.23,29,86.26
266,31/03/2001,Australia,Nehru Stadium (Indore),c D Fleming b G McGrath,139,10105,42.64,125,86.52
267,3/4/2001,Australia,Indira Priyadarshini Stadium,c S Waugh b N Bracken,62,10167,42.72,38,86.77
268,6/4/2001,Australia,Nehru Stadium (Margao),c A Gilchrist b N Bracken,12,10179,42.59,15,86.76
269,24/06/2001,Zimbabwe,Harare Sports Club,not out,70,10249,42.88,70,86.84
270,27/06/2001,Zimbabwe,Queens Sports Club,c G Flower b B Strang,9,10258,42.74,27,86.72
271,30/06/2001,West Indies,Queens Sports Club,not out,81,10339,43.08,110,86.6
272,4/7/2001,West Indies,Harare Sports Club,not out,122,10461,43.59,131,86.67
273,7/7/2001,West Indies,Harare Sports Club,c D Ganga b C Collymore,0,10461,43.41,4,86.64
274,5/10/2001,South Africa,The Wanderers Stadium,c H Gibbs b J Kallis,101,10562,43.64,129,86.55
275,10/10/2001,South Africa,SuperSport Park,c A Nel b M Ntini,38,10600,43.62,57,86.46
277,17/10/2001,Kenya,St George's Park,b J Angara,3,10603,43.45,20,86.34
278,19/10/2001,South Africa,Buffalo Park,b J Kallis,37,10640,43.43,35,86.4
279,24/10/2001,Kenya,Boland Park,c M Odumbe b T Odoyo,146,10786,43.85,132,86.66
280,26/10/2001,South Africa,Kingsmead,b M Hayward,17,10803,43.74,42,86.5
281,19/01/2002,England,Eden Gardens,b A Flintoff,36,10839,43.71,43,86.49
282,22/01/2002,England,Barabati Stadium,run out,45,10884,43.71,60,86.44
283,25/01/2002,England,M.A. Chidambaram Stadium,lbw b J Snape,68,10952,43.81,79,86.43
284,28/01/2002,England,Green Park,not out,87,11039,44.16,67,86.66
285,31/01/2002,England,Feroz Shah Kotla,c J Foster b A Caddick,18,11057,44.05,16,86.69
286,3/2/2002,England,Wankhede Stadium,c J Foster b D Gough,12,11069,43.92,18,86.67
287,29/05/2002,West Indies,Kensington Oval,not out,34,11103,44.06,45,86.63
288,2/6/2002,West Indies,Queen's Park Oval,b M Dillon,65,11168,44.14,70,86.66
289,29/06/2002,England,Lord's,lbw b R Irani,1,11169,43.97,9,86.61
290,30/06/2002,Sri Lanka,Kennington Oval,c R Kaluwitharana b D Zoysa,49,11218,43.99,70,86.52
291,4/7/2002,England,Riverside Ground,not out,105,11323,44.4,108,86.61
292,6/7/2002,Sri Lanka,Edgbaston,c M Atapattu b C Fernando,19,11342,44.3,25,86.59
293,9/7/2002,England,Kennington Oval,c A Stewart b M Hoggard,36,11378,44.27,29,86.67
294,11/7/2002,Sri Lanka,County Ground (Bristol),c U Chandana b W Vaas,113,11491,44.54,102,86.86
295,13/07/2002,England,Lord's,b A Giles,14,11505,44.42,19,86.84
296,14/09/2002,Zimbabwe,R. Premadasa Stadium,c A Campbell b D Hondo,7,11512,44.28,16,86.78
297,22/09/2002,England,R. Premadasa Stadium,not out,9,11521,44.31,20,86.72
298,25/09/2002,South Africa,R. Premadasa Stadium,run out,16,11537,44.2,29,86.65
300,30/09/2002,Sri Lanka,R. Premadasa Stadium,not out,7,11544,44.23,22,86.56
301,8/1/2003,New Zealand,Westpac Stadium,lbw b S Bond,0,11544,44.06,10,86.5
302,11/1/2003,New Zealand,Eden Park,c B McCullum b D Tuffey,1,11545,43.9,13,86.42
303,14/01/2003,New Zealand,Seddon Park,c S Fleming b D Tuffey,1,11546,43.73,6,86.39
304,12/2/2003,Netherlands,Boland Park,c J Smits b T de Leede,52,11598,43.77,72,86.31
305,15/02/2003,Australia,SuperSport Park,lbw b J Gillespie,36,11634,43.74,59,86.2
306,19/02/2003,Zimbabwe,Harare Sports Club,b G Flower,81,11715,43.88,91,86.22
307,23/02/2003,Namibia,City Oval,b R van Vuuren,152,11867,44.28,151,86.38
308,26/02/2003,England,Kingsmead,c P Collingwood b A Flintoff,50,11917,44.3,52,86.42
309,1/3/2003,Pakistan,SuperSport Park,c Younis Khan b Shoaib Akhtar,98,12015,44.5,75,86.66
310,7/3/2003,Kenya,Newlands,c A Suji b M Suji,5,12020,44.35,12,86.62
311,10/3/2003,Sri Lanka,The Wanderers Stadium,c K Sangakkara b P de Silva,97,12117,44.55,120,86.57
312,14/03/2003,New Zealand,SuperSport Park,c J Oram b D Tuffey,15,12132,44.44,16,86.58
313,20/03/2003,Kenya,Kingsmead,c D Obuya b S Tikolo,83,12215,44.58,101,86.55
314,23/03/2003,Australia,The Wanderers Stadium,c & b G McGrath,4,12219,44.43,5,86.54
315,23/10/2003,New Zealand,M.A. Chidambaram Stadium,not out,48,12267,44.61,66,86.48
316,26/10/2003,Australia,Captain Roop Singh Stadium,c A Gilchrist b N Bracken,100,12367,44.81,119,86.46
317,1/11/2003,Australia,Wankhede Stadium,b M Clarke,68,12435,44.89,76,86.47
318,6/11/2003,New Zealand,Barabati Stadium,lbw b K Mills,14,12449,44.78,14,86.49
319,12/11/2003,Australia,M.Chinnaswamy Stadium,b I Harvey,89,12538,44.94,91,86.56
320,15/11/2003,New Zealand,Lal Bahadur Shastri Stadium,c J Oram b C Harris,102,12640,45.14,91,86.72
321,18/11/2003,Australia,Eden Gardens,b A Bichel,45,12685,45.14,66,86.63
322,9/1/2004,Australia,Melbourne Cricket Ground,c R Ponting b A Symonds,63,12748,45.21,69,86.66
323,14/01/2004,Zimbabwe,Bellerive Oval,b S Ervine,44,12792,45.2,59,86.61
324,18/01/2004,Australia,Brisbane Cricket Ground,c & b A Symonds,86,12878,45.35,95,86.63
325,1/2/2004,Australia,W.A.C.A. Ground,c M Hayden b B Lee,5,12883,45.2,6,86.63
326,3/2/2004,Zimbabwe,W.A.C.A. Ground,c T Taibu b H Streak,3,12886,45.06,8,86.61
327,6/2/2004,Australia,Melbourne Cricket Ground,b B Lee,8,12894,44.93,22,86.53
328,8/2/2004,Australia,Sydney Cricket Ground,c B Lee b J Gillespie,27,12921,44.86,40,86.48
329,13/03/2004,Pakistan,National Stadium,c Naved-ul-Hasan b Shoaib Akhtar,28,12949,44.81,35,86.47
330,16/03/2004,Pakistan,Rawalpindi Cricket Stadium,c Abdul Razzaq b Shoaib Malik,141,13090,45.14,135,86.63
331,19/03/2004,Pakistan,Arbab Niaz Stadium,c Moin Khan b Shabbir Ahmed,0,13090,44.98,5,86.6
332,21/03/2004,Pakistan,Gaddafi Stadium,c Moin Khan b Shoaib Akhtar,7,13097,44.85,13,86.57
333,24/03/2004,Pakistan,Gaddafi Stadium,c Moin Khan b Mohammad Sami,37,13134,44.83,48,86.54
334,16/07/2004,United Arab Emirates,Rangiri Dambulla International Stadium,c Fahad Usman b Asim Saeed,18,13152,44.73,25,86.51
335,18/07/2004,Sri Lanka,Rangiri Dambulla International Stadium,c W Jayantha b D Zoysa,11,13163,44.62,13,86.51
336,21/07/2004,Bangladesh,Sinhalese Sports Club Ground,not out,82,13245,44.9,126,86.34
337,24/07/2004,Pakistan,R. Premadasa Stadium,c Imran Nazir b Shoaib Malik,78,13323,45.01,103,86.27
338,27/07/2004,Sri Lanka,R. Premadasa Stadium,lbw b D Zoysa,18,13341,44.92,21,86.27
339,1/8/2004,Sri Lanka,R. Premadasa Stadium,b T Dilshan,74,13415,45.02,100,86.19
340,13/11/2004,Pakistan,Eden Gardens,run out,16,13431,44.92,17,86.2
341,23/12/2004,Bangladesh,M A Aziz Stadium,c Khaled Mashud b Nazmul Hossain,19,13450,44.83,32,86.14
342,27/12/2004,Bangladesh,Bangabandhu National Stadium,c Khaled Mashud b Khaled Mahmud,47,13497,44.84,42,86.21
343,2/4/2005,Pakistan,Nehru Stadium (Kochi),c Mohammad Yousuf b Naved-ul-Hasan,4,13501,44.71,4,86.21
344,5/4/2005,Pakistan,Dr Y.S. Rajasekhara Reddy Cricket Stadium,run out,2,13503,44.56,8,86.18
345,9/4/2005,Pakistan,Keenan Stadium,c Younis Khan b Mohammad Sami,6,13509,44.44,11,86.16
346,12/4/2005,Pakistan,Sardar Patel Stadium,b Shoaib Malik,123,13632,44.7,130,86.23
347,15/04/2005,Pakistan,Green Park,c Kamran Akmal b Naved-ul-Hasan,1,13633,44.55,10,86.18
348,17/04/2005,Pakistan,Feroz Shah Kotla,b Iftikhar Anjum,9,13642,44.44,15,86.16
349,25/10/2005,Sri Lanka,Vidarbha Cricket Association Ground,c K Sangakkara b M Maharoof,93,13735,44.59,96,86.22
350,28/10/2005,Sri Lanka,Punjab Cricket Association Stadium,not out,67,13802,44.81,69,86.27
351,31/10/2005,Sri Lanka,Sawai Mansingh Stadium,c K Sangakkara b W Vaas,2,13804,44.67,3,86.26
352,3/11/2005,Sri Lanka,Nehru Stadium (Pune),b W Vaas,11,13815,44.56,19,86.23
353,9/11/2005,Sri Lanka,Madhavrao Scindia Cricket Ground,c M Maharoof b C Fernando,19,13834,44.48,30,86.19
354,12/11/2005,Sri Lanka,Reliance Stadium,c & b D Zoysa,39,13873,44.46,48,86.17
355,16/11/2005,South Africa,Rajiv Gandhi International Stadium,c M Boucher b S Pollock,2,13875,44.33,9,86.14
356,19/11/2005,South Africa,M.Chinnaswamy Stadium,c sub b S Pollock,2,13877,44.19,22,86.03
357,25/11/2005,South Africa,Eden Gardens,c M Boucher b S Pollock,2,13879,44.06,15,85.96
358,28/11/2005,South Africa,Wankhede Stadium,c A Prince b A Nel,30,13909,44.02,44,85.92
359,6/2/2006,Pakistan,Arbab Niaz Stadium,lbw b Arshad Khan,100,14009,44.19,113,85.93
360,11/2/2006,Pakistan,Rawalpindi Cricket Stadium,c Kamran Akmal b Abdul Razzaq,42,14051,44.19,43,85.97
361,13/02/2006,Pakistan,Gaddafi Stadium,c sub b Abdul Razzaq,95,14146,44.34,104,86
362,16/02/2006,Pakistan,Multan Cricket Stadium,c Kamran Akmal b Mohammad Sami,0,14146,44.21,3,85.98
363,18/08/2006,Sri Lanka,Sinhalese Sports Club Ground,not out,2,14148,44.21,3,85.98
364,14/09/2006,West Indies,Kinrara Academy Oval,not out,141,14289,44.65,148,86.06
365,16/09/2006,Australia,Kinrara Academy Oval,c B Haddin b M Johnson,12,14301,44.55,17,86.05
366,20/09/2006,West Indies,Kinrara Academy Oval,run out,65,14366,44.61,102,85.91
367,22/09/2006,Australia,Kinrara Academy Oval,c M Hussey b B Lee,4,14370,44.49,10,85.88
368,15/10/2006,England,Sawai Mansingh Stadium,lbw b S Harmison,35,14405,44.46,41,85.88
369,26/10/2006,West Indies,Sardar Patel Stadium,b I Bradshaw,29,14434,44.41,45,85.82
370,29/10/2006,Australia,Punjab Cricket Association Stadium,c A Gilchrist b G McGrath,10,14444,44.31,26,85.75
371,22/11/2006,South Africa,Kingsmead,b A Nel,35,14479,44.28,51,85.7
372,26/11/2006,South Africa,Newlands,c L Bosman b S Pollock,2,14481,44.15,9,85.67
373,29/11/2006,South Africa,St George's Park,c M Boucher b S Pollock,1,14482,44.02,3,85.66
374,3/12/2006,South Africa,SuperSport Park,c A de Villiers b J Kemp,55,14537,44.05,97,85.49
375,21/01/2007,West Indies,Vidarbha Cricket Association Ground,lbw b C Gayle,31,14568,44.01,38,85.48
376,24/01/2007,West Indies,Barabati Stadium,c D Smith b D Powell,0,14568,43.88,6,85.45
377,27/01/2007,West Indies,M.A. Chidambaram Stadium,c R Morton b D Bravo,60,14628,43.93,66,85.47
378,31/01/2007,West Indies,Reliance Stadium,not out,100,14728,44.23,76,85.68
380,11/2/2007,Sri Lanka,Madhavrao Scindia Cricket Ground,st K Sangakkara b C Bandara,54,14782,44.26,61,85.69
381,14/02/2007,Sri Lanka,Nehru Stadium (Margao),b K Kulasekara,1,14783,44.13,8,85.65
382,17/03/2007,Bangladesh,Queen's Park Oval,c Mushfiqur Rahim b Abdur Razzak,7,14790,44.02,26,85.57
383,19/03/2007,Bermuda,Queen's Park Oval,not out,57,14847,44.19,29,85.75
384,23/03/2007,Sri Lanka,Queen's Park Oval,b C Fernando,0,14847,44.06,3,85.74
385,23/06/2007,Ireland,Civil Service Cricket Club,b R Whelan,4,14851,43.94,3,85.74
386,26/06/2007,South Africa,Civil Service Cricket Club,run out,99,14950,44.1,143,85.61
387,29/06/2007,South Africa,Civil Service Cricket Club,b T Tshabalala,93,15043,44.24,106,85.62
388,1/7/2007,South Africa,Civil Service Cricket Club,c M Boucher b M Ntini,8,15051,44.14,8,85.63
389,21/08/2007,England,The Rose Bowl,c R Bopara b J Anderson,17,15068,44.06,33,85.57
390,24/08/2007,England,County Ground (Bristol),c M Prior b A Flintoff,99,15167,44.22,112,85.58
391,27/08/2007,England,Edgbaston,c P Collingwood b J Anderson,8,15175,44.11,19,85.54
392,30/08/2007,England,Old Trafford,c A Flintoff b K Pietersen,55,15230,44.14,86,85.43
393,2/9/2007,England,Headingley,c M Prior b J Lewis,71,15301,44.22,59,85.55
394,5/9/2007,England,Kennington Oval,c P Collingwood b M Panesar,94,15395,44.37,81,85.68
395,8/9/2007,England,Lord's,c M Prior b A Flintoff,30,15425,44.32,46,85.63
396,29/09/2007,Australia,M.Chinnaswamy Stadium,lbw b M Johnson,0,15425,44.2,6,85.6
397,2/10/2007,Australia,Nehru Stadium (Kochi),c A Symonds b S Clark,16,15441,44.12,25,85.57
398,5/10/2007,Australia,Rajiv Gandhi International Stadium,b G Hogg,43,15484,44.11,71,85.48
399,8/10/2007,Australia,Sector 16 Stadium,run out,79,15563,44.21,119,85.35
400,11/10/2007,Australia,Reliance Stadium,c A Gilchrist b B Lee,47,15610,44.22,73,85.27
401,14/10/2007,Australia,Vidarbha Cricket Association Ground,st A Gilchrist b J Hopes,72,15682,44.3,72,85.33
402,17/10/2007,Australia,Wankhede Stadium,b B Lee,21,15703,44.23,36,85.27
403,5/11/2007,Pakistan,Nehru Stadium (Guwahati),lbw b Shoaib Akhtar,4,15707,44.12,7,85.26
404,8/11/2007,Pakistan,Punjab Cricket Association Stadium,c Kamran Akmal b Umar Gul,99,15806,44.27,91,85.38
405,11/11/2007,Pakistan,Green Park,c Kamran Akmal b Sohail Tanvir,29,15835,44.23,27,85.41
406,15/11/2007,Pakistan,Captain Roop Singh Stadium,b Umar Gul,97,15932,44.38,102,85.46
407,18/11/2007,Pakistan,Sawai Mansingh Stadium,c Misbah-ul-Haq b Sohail Tanvir,30,15962,44.34,27,85.5
408,3/2/2008,Australia,Brisbane Cricket Ground,hit wicket b B Lee,10,15972,44.24,17,85.48
409,4/2/2008,Sri Lanka,Brisbane Cricket Ground,b S Malinga,35,16007,44.22,52,85.43
410,10/2/2008,Australia,Melbourne Cricket Ground,c B Lee b M Johnson,44,16051,44.22,54,85.41
411,12/2/2008,Sri Lanka,Manuka Oval,c K Kulasekara b M Maharoof,32,16083,44.18,30,85.45
412,17/02/2008,Australia,Adelaide Oval,lbw b N Bracken,5,16088,44.08,15,85.41
413,19/02/2008,Sri Lanka,Adelaide Oval,b S Malinga,0,16088,43.96,2,85.4
414,24/02/2008,Australia,Sydney Cricket Ground,lbw b B Lee,2,16090,43.84,3,85.39
415,26/02/2008,Sri Lanka,Bellerive Oval,c L Silva b M Muralitharan,63,16153,43.89,54,85.48
416,2/3/2008,Australia,Sydney Cricket Ground,not out,117,16270,44.21,120,85.56
417,4/3/2008,Australia,Brisbane Cricket Ground,c R Ponting b M Clarke,91,16361,44.34,121,85.49
418,23/11/2008,England,M.Chinnaswamy Stadium,b S Broad,11,16372,44.25,21,85.46
419,26/11/2008,England,Barabati Stadium,b S Harmison,50,16422,44.26,57,85.46
420,28/01/2009,Sri Lanka,Rangiri Dambulla International Stadium,lbw b T Thushara,5,16427,44.16,16,85.42
421,31/01/2009,Sri Lanka,R. Premadasa Stadium,lbw b K Kulasekara,6,16433,44.06,9,85.41
422,3/2/2009,Sri Lanka,R. Premadasa Stadium,lbw b C Fernando,7,16440,43.96,12,85.39
423,3/3/2009,New Zealand,McLean Park,c B McCullum b I Butler,20,16460,43.89,23,85.4
424,6/3/2009,New Zealand,Westpac Stadium,lbw b D Vettori,61,16521,43.94,69,85.41
425,8/3/2009,New Zealand,AMI Stadium,retired hurt,163,16684,44.37,133,85.66
426,11/9/2009,New Zealand,R. Premadasa Stadium,c M Guptill b D Vettori,46,16730,44.38,55,85.65
427,12/9/2009,Sri Lanka,R. Premadasa Stadium,c B Mendis b K Kulasekara,27,16757,44.33,33,85.65
428,14/09/2009,Sri Lanka,R. Premadasa Stadium,lbw b B Mendis,138,16895,44.58,133,85.77
429,26/09/2009,Pakistan,SuperSport Park,c Kamran Akmal b Mohammad Amir,8,16903,44.48,14,85.75
431,25/10/2009,Australia,Reliance Stadium,c R Ponting b S Watson,14,16917,44.4,29,85.69
432,28/10/2009,Australia,Vidarbha Cricket Association Stadium,c C White b P Siddle,4,16921,44.3,8,85.68
433,31/10/2009,Australia,Feroz Shah Kotla,run out,32,16953,44.26,47,85.64
434,2/11/2009,Australia,Punjab Cricket Association Stadium,lbw b N Hauritz,40,16993,44.25,68,85.55
435,5/11/2009,Australia,Rajiv Gandhi International Stadium,c N Hauritz b C McKay,175,17168,44.59,141,85.82
436,8/11/2009,Australia,Nehru Stadium (Guwahati),c & b D Bollinger,10,17178,44.5,17,85.8
437,15/12/2009,Sri Lanka,Madhavrao Scindia Cricket Ground,b C Fernando,69,17247,44.57,63,85.87
438,18/12/2009,Sri Lanka,Vidarbha Cricket Association Stadium,st K Sangakkara b B Mendis,43,17290,44.56,52,85.86
439,21/12/2009,Sri Lanka,Barabati Stadium,not out,96,17386,44.81,104,85.89
440,24/12/2009,Sri Lanka,Eden Gardens,c S Randiv b R Lakmal,8,17394,44.71,8,85.9
441,21/02/2010,South Africa,Sawai Mansingh Stadium,run out,4,17398,44.61,5,85.9
442,24/02/2010,South Africa,Captain Roop Singh Stadium,not out,200,17598,45.12,147,86.26
443,12/1/2011,South Africa,Kingsmead,c D Steyn b L Tsotsobe,7,17605,45.03,11,86.25
444,15/01/2011,South Africa,The Wanderers Stadium,b J Botha,24,17629,44.97,44,86.18
445,19/02/2011,Bangladesh,Shere Bangla National Stadium,run out,28,17657,44.93,29,86.19
446,27/02/2011,England,M.Chinnaswamy Stadium,c M Yardy b J Anderson,120,17777,45.12,115,86.3
447,6/3/2011,Ireland,M.Chinnaswamy Stadium,lbw b G Dockrell,38,17815,45.1,56,86.25
448,9/3/2011,Netherlands,Feroz Shah Kotla,c B Kruger b P Seelaar,27,17842,45.06,22,86.28
449,12/3/2011,South Africa,Vidarbha Cricket Association Stadium,c J Duminy b M Morkel,111,17953,45.22,101,86.4
450,20/03/2011,West Indies,M.A. Chidambaram Stadium,c D Thomas b R Rampaul,2,17955,45.11,4,86.39
451,24/03/2011,Australia,Sardar Patel Stadium,c B Haddin b S Tait,53,18008,45.13,68,86.37
452,30/03/2011,Pakistan,Punjab Cricket Association Stadium,c Shahid Afridi b Saeed Ajmal,85,18093,45.23,115,86.3
453,2/4/2011,Sri Lanka,Wankhede Stadium,c K Sangakkara b S Malinga,18,18111,45.16,14,86.33
454,5/2/2012,Australia,Melbourne Cricket Ground,c R Ponting b M Starc,2,18113,45.06,6,86.31
455,8/2/2012,Sri Lanka,W.A.C.A. Ground,b A Mathews,48,18161,45.06,63,86.28
456,14/02/2012,Sri Lanka,Adelaide Oval,c K Sangakkara b K Kulasekara,15,18176,44.99,24,86.25
457,19/02/2012,Australia,Brisbane Cricket Ground,c X Doherty b B Hilfenhaus,3,18179,44.89,12,86.22
458,21/02/2012,Sri Lanka,Brisbane Cricket Ground,b K Kulasekara,22,18201,44.83,23,86.23
459,26/02/2012,Australia,Sydney Cricket Ground,run out,14,18215,44.75,15,86.23
460,28/02/2012,Sri Lanka,Bellerive Oval,lbw b S Malinga,39,18254,44.74,30,86.3
461,13/03/2012,Sri Lanka,Shere Bangla National Stadium,c D Jayawardene b R Lakmal,6,18260,44.65,19,86.25
462,16/03/2012,Bangladesh,Shere Bangla National Stadium,c Mushfiqur Rahim b Mashrafe Bin Mortaza,114,18374,44.81,147,86.19
463,18/03/2012,Pakistan,Shere Bangla National Stadium,c Younis Khan b Saeed Ajmal,52,18426,44.83,48,86.24