Runs,Mins,BF,4s,6s,SR,Pos,Dismissal,Inns,Opposition,Ground,Start Date
3,-,4,0,0,75,4,caught,1,Sri Lanka,Singapore,4/3/1996
4,-,7,0,0,57.14,4,run out,1,Pakistan,Singapore,4/5/1996
3,-,5,0,0,60,5,caught,2,Pakistan,Sharjah,4/12/1996
11,28,21,0,0,52.38,8,caught,2,South Africa,Sharjah,4/14/1996
22,21,15,3,0,146.66,6,not out,1,England,Manchester,5/26/1996
7,-,4,0,0,175,6,not out,1,Sri Lanka,Colombo (RPS),8/28/1996
13,45,25,1,0,52,3,bowled,1,Australia,Colombo (SSC),9/6/1996
39,-,50,3,0,78,3,caught,2,Pakistan,Toronto,9/16/1996
90,-,114,6,0,78.94,3,bowled,1,Pakistan,Toronto,9/17/1996
46,-,93,3,0,49.46,3,caught,1,Pakistan,Toronto,9/18/1996
25,-,25,3,1,100,3,caught,2,Pakistan,Toronto,9/21/1996
20,-,39,0,0,51.28,3,caught,2,Pakistan,Toronto,9/23/1996
62,114,87,6,0,71.26,3,caught,2,South Africa,Hyderabad (Deccan),10/17/1996
6,18,13,1,0,46.15,3,lbw,2,Australia,Bangalore,10/21/1996
0,1,1,0,0,0,3,caught,2,South Africa,Jaipur,10/23/1996
21,57,40,0,0,52.5,4,run out,1,South Africa,Rajkot,10/29/1996
56,-,67,3,0,83.58,5,caught,1,Australia,Mohali,11/3/1996
31,52,41,2,0,75.6,5,bowled,1,South Africa,Mumbai,11/6/1996
16,44,32,1,0,50,4,run out,1,South Africa,Mumbai,12/14/1996
8,26,22,0,0,36.36,5,bowled,2,South Africa,Bloemfontein,1/23/1997
23,56,43,2,0,53.48,5,run out,2,Zimbabwe,Paarl,1/27/1997
50,152,104,3,1,48.07,2,caught,1,South Africa,Port Elizabeth,2/2/1997
53,102,71,5,0,74.64,2,run out,1,South Africa,East London,2/4/1997
12,30,30,1,0,40,2,caught,1,Zimbabwe,Centurion,2/7/1997
17,54,27,0,0,62.96,4,bowled,2,Zimbabwe,Benoni,2/9/1997
33,68,70,3,0,47.14,3,caught,1,South Africa,Durban,2/12/1997
84,140,94,5,1,89.36,3,caught,2,South Africa,Durban,2/13/1997
17,60,44,2,0,38.63,3,caught,1,West Indies,Port of Spain,4/26/1997
74,111,105,6,0,70.47,3,bowled,2,West Indies,Kingstown,4/30/1997
30,77,61,4,0,49.18,3,caught,1,West Indies,Bridgetown,5/3/1997
21,48,31,3,0,67.74,3,not out,2,New Zealand,Bangalore,5/14/1997
61,135,103,8,0,59.22,3,bowled,1,Sri Lanka,Mumbai,5/17/1997
107,199,116,10,0,92.24,3,caught,2,Pakistan,Chennai,5/21/1997
69,123,102,6,0,67.64,4,bowled,1,Sri Lanka,Colombo (RPS),7/18/1997
7,17,12,1,0,58.33,3,caught,1,Sri Lanka,Colombo (RPS),7/26/1997
1,5,1,0,0,100,4,run out,2,Sri Lanka,Colombo (RPS),8/17/1997
18,43,35,0,0,51.42,5,caught,1,Sri Lanka,Colombo (RPS),8/20/1997
78,100,79,9,0,98.73,4,caught,1,Sri Lanka,Colombo (SSC),8/23/1997
42,87,68,4,0,61.76,4,caught,2,Sri Lanka,Colombo (SSC),8/24/1997
23,41,41,0,0,56.09,3,caught,1,Pakistan,Toronto,9/13/1997
14,51,25,2,0,56,3,run out,2,Pakistan,Toronto,9/14/1997
25,112,79,0,0,31.64,3,caught,1,Pakistan,Toronto,9/18/1997
3,8,4,0,0,75,7,not out,1,Pakistan,Toronto,9/21/1997
50,109,81,2,0,61.72,5,bowled,1,Pakistan,Hyderabad (Sind),9/28/1997
31,48,45,1,0,68.88,3,bowled,2,West Indies,Sharjah,12/16/1997
5,31,22,0,0,22.72,5,caught,2,Bangladesh,Mohali,5/14/1998
49,89,62,4,0,79.03,3,bowled,2,Kenya,Bangalore,5/20/1998
1,22,21,0,0,4.76,3,bowled,2,Bangladesh,Mumbai,5/25/1998
33,62,53,2,0,62.26,4,caught,2,Kenya,Gwalior,5/28/1998
4,16,10,1,0,40,4,caught,2,Pakistan,Toronto,9/12/1998
18,41,30,1,0,60,4,caught,2,Pakistan,Toronto,9/13/1998
9,30,30,0,0,30,5,bowled,2,Pakistan,Toronto,9/16/1998
1,4,1,0,0,100,6,run out,2,Pakistan,Toronto,9/19/1998
64,126,98,3,0,65.3,3,caught,2,Zimbabwe,Bulawayo,9/26/1998
28,52,42,1,0,66.66,5,caught,2,Zimbabwe,Harare,9/30/1998
48,92,80,3,0,60,4,run out,1,Australia,Dhaka,10/28/1998
20,75,54,1,0,37.03,4,caught,1,West Indies,Dhaka,10/31/1998
3,12,13,0,0,23.07,3,caught,2,Zimbabwe,Sharjah,11/11/1998
123,201,123,10,1,100,3,not out,1,New Zealand,Taupo,1/9/1999
38,97,65,4,0,58.46,3,caught,2,New Zealand,Napier,1/12/1999
68,95,71,5,1,95.77,3,caught,1,New Zealand,Wellington,1/14/1999
51,95,71,5,1,71.83,3,bowled,2,New Zealand,Auckland,1/16/1999
29,58,35,2,0,82.85,3,caught,2,New Zealand,Christchurch,1/19/1999
116,118,118,12,0,98.3,3,caught,1,Sri Lanka,Nagpur,3/22/1999
3,11,9,0,0,33.33,3,bowled,2,Pakistan,Jaipur,3/24/1999
17,29,15,3,0,113.33,3,caught,1,Sri Lanka,Pune,3/30/1999
0,3,3,0,0,0,3,caught,1,Pakistan,Mohali,4/1/1999
25,64,37,4,0,67.56,3,lbw,2,Pakistan,Bangalore,4/4/1999
28,119,79,0,0,35.44,3,caught,2,Pakistan,Sharjah,4/8/1999
16,49,38,1,0,42.1,3,caught,1,England,Sharjah,4/9/1999
63,135,92,6,0,68.47,3,run out,1,England,Sharjah,4/11/1999
81,192,121,6,0,66.94,3,run out,2,Pakistan,Sharjah,4/13/1999
0,1,1,0,0,0,3,lbw,1,Pakistan,Sharjah,4/16/1999
54,103,75,5,0,72,3,bowled,1,South Africa,Hove,5/15/1999
13,23,14,2,0,92.85,3,caught,2,Zimbabwe,Leicester,5/19/1999
104,158,109,10,0,95.41,3,not out,1,Kenya,Bristol,5/23/1999
145,179,129,17,1,112.4,3,run out,1,Sri Lanka,Taunton,5/26/1999
53,116,82,6,0,64.63,3,caught,1,England,Birmingham,5/29/1999
2,8,6,0,0,33.33,3,caught,2,Australia,The Oval,6/4/1999
61,119,89,4,0,68.53,3,caught,1,Pakistan,Manchester,6/8/1999
29,45,35,5,0,82.85,3,caught,1,New Zealand,Nottingham,6/12/1999
5,25,11,0,0,45.45,3,caught,1,Australia,Galle,8/23/1999
22,36,26,1,0,84.61,3,caught,1,Sri Lanka,Colombo (RPS),8/25/1999
0,2,2,0,0,0,4,caught,2,Australia,Colombo (SSC),8/28/1999
13,43,39,0,0,33.33,3,caught,1,Sri Lanka,Colombo (SSC),8/29/1999
12,17,15,3,0,80,3,caught,1,Zimbabwe,Singapore,9/4/1999
39,80,49,3,0,79.59,3,caught,2,West Indies,Singapore,9/5/1999
29,71,58,4,0,50,3,caught,1,West Indies,Singapore,9/7/1999
103,-,124,8,2,83.06,3,not out,1,West Indies,Singapore,9/8/1999
5,-,14,1,0,35.71,3,caught,2,West Indies,Toronto,9/11/1999
16,-,59,1,0,27.11,3,lbw,2,West Indies,Toronto,9/12/1999
77,-,87,6,2,88.5,5,bowled,1,West Indies,Toronto,9/14/1999
9,20,19,2,0,47.36,4,not out,2,South Africa,Nairobi (Gym),9/26/1999
30,-,56,2,0,53.57,3,caught,1,Kenya,Nairobi (Gym),9/29/1999
12,23,15,1,0,80,4,lbw,1,Zimbabwe,Nairobi (Gym),10/1/1999
30,88,65,3,0,46.15,3,caught,2,South Africa,Nairobi (Gym),10/3/1999
39,56,43,3,0,90.69,3,lbw,2,New Zealand,Rajkot,11/5/1999
153,196,153,15,2,100,3,caught,1,New Zealand,Hyderabad (Deccan),11/8/1999
14,51,31,1,0,45.16,3,caught,1,New Zealand,Gwalior,11/11/1999
5,7,7,0,0,71.42,3,caught,2,New Zealand,Guwahati,11/14/1999
29,67,53,3,2,54.71,3,not out,2,New Zealand,Delhi,11/17/1999
8,32,18,1,0,44.44,3,caught,1,Pakistan,Brisbane,1/10/2000
60,149,85,2,0,70.58,5,caught,2,Australia,Melbourne,1/12/2000
22,109,70,2,0,31.42,4,lbw,1,Australia,Sydney,1/14/2000
15,41,31,1,0,48.38,4,lbw,2,Pakistan,Hobart,1/21/2000
32,81,58,1,0,55.17,3,caught,1,Pakistan,Adelaide,1/25/2000
63,97,82,10,0,76.82,3,caught,2,Australia,Adelaide,1/26/2000
3,26,14,0,0,21.42,3,caught,2,Pakistan,Perth,1/28/2000
65,145,106,6,0,61.32,3,caught,1,Australia,Perth,1/30/2000
17,19,21,2,0,80.95,3,caught,2,South Africa,Kochi,3/9/2000
36,81,59,4,0,61.01,4,caught,2,South Africa,Jamshedpur,3/12/2000
73,172,109,4,1,66.97,3,run out,1,South Africa,Faridabad,3/15/2000
3,17,10,0,0,30,3,caught,2,South Africa,Vadodara,3/17/2000
79,103,70,11,0,112.85,3,run out,2,South Africa,Nagpur,3/19/2000
8,40,25,0,0,32,3,bowled,1,South Africa,Sharjah,3/22/2000
26,109,70,3,0,37.14,3,caught,2,Pakistan,Sharjah,3/23/2000
29,72,46,3,0,63.04,3,caught,2,Pakistan,Sharjah,3/26/2000
26,60,60,2,0,43.33,5,caught,1,South Africa,Sharjah,3/27/2000
24,64,44,3,0,54.54,4,caught,2,Sri Lanka,Dhaka,6/1/2000
26,34,32,3,0,81.25,3,lbw,2,Pakistan,Dhaka,6/3/2000
68,127,87,7,0,78.16,3,not out,2,Kenya,Nairobi (Gym),10/3/2000
9,32,18,2,0,50,3,caught,1,Australia,Nairobi (Gym),10/7/2000
58,106,71,9,0,81.69,3,caught,1,South Africa,Nairobi (Gym),10/13/2000
22,52,35,1,0,62.85,3,run out,1,New Zealand,Nairobi (Gym),10/15/2000
16,-,21,2,0,76.19,3,run out,1,Sri Lanka,Sharjah,10/20/2000
85,-,121,4,0,70.24,1,caught,1,Zimbabwe,Sharjah,10/22/2000
9,28,16,1,0,56.25,3,run out,2,Zimbabwe,Cuttack,12/2/2000
62,146,88,3,0,70.45,3,run out,1,Zimbabwe,Ahmedabad,12/5/2000
30,87,53,3,0,56.6,3,caught,1,Zimbabwe,Jodhpur,12/8/2000
6,18,16,1,0,37.5,3,caught,1,Zimbabwe,Rajkot,12/14/2000
80,144,84,3,1,95.23,4,caught,1,Australia,Bangalore,3/25/2001
13,27,23,2,0,56.52,4,run out,1,Australia,Pune,3/28/2001
15,30,34,3,0,44.11,1,caught,1,Australia,Indore,3/31/2001
7,23,10,0,0,70,4,caught,2,Australia,Visakhapatnam,4/3/2001
31,65,45,1,0,68.88,4,caught,1,Australia,Margao,4/6/2001
72,103,64,7,0,112.5,4,not out,2,Zimbabwe,Bulawayo,6/27/2001
4,5,5,0,0,80,4,stumped,2,West Indies,Bulawayo,6/30/2001
15,28,18,0,0,83.33,5,bowled,2,West Indies,Harare,7/4/2001
30,43,32,6,0,93.75,4,bowled,2,West Indies,Harare,7/7/2001
15,48,36,1,0,41.66,4,caught,2,New Zealand,Colombo (RPS),7/20/2001
49,126,81,0,0,60.49,6,not out,2,Sri Lanka,Colombo (RPS),7/22/2001
27,111,57,1,0,47.36,4,bowled,2,New Zealand,Colombo (RPS),7/26/2001
43,86,79,3,0,54.43,4,caught,2,Sri Lanka,Colombo (RPS),7/28/2001
47,122,88,3,0,53.4,4,stumped,1,Sri Lanka,Colombo (SSC),8/1/2001
57,76,56,6,0,101.78,4,not out,2,New Zealand,Colombo (SSC),8/2/2001
21,42,36,2,0,58.33,4,bowled,2,Sri Lanka,Colombo (RPS),8/5/2001
1,12,7,0,0,14.28,3,caught,1,South Africa,Johannesburg,10/5/2001
54,107,79,5,0,68.35,4,caught,1,South Africa,Centurion,10/10/2001
11,25,23,2,0,47.82,4,caught,2,Kenya,Port Elizabeth,10/17/2001
71,122,87,7,0,81.6,4,not out,2,South Africa,East London,10/19/2001
77,143,102,6,0,75.49,4,caught,1,South Africa,Durban,10/26/2001
23,43,34,2,0,67.64,4,lbw,1,Zimbabwe,Faridabad,3/7/2002
66,82,59,6,0,111.86,4,not out,1,Zimbabwe,Mohali,3/10/2002
6,16,11,1,0,54.54,4,caught,1,Zimbabwe,Kochi,3/13/2002
32,81,56,0,0,57.14,4,bowled,2,Zimbabwe,Hyderabad (Deccan),3/16/2002
26,34,33,1,0,78.78,4,bowled,1,Zimbabwe,Guwahati,3/19/2002
9,14,16,2,0,56.25,5,not out,2,West Indies,Bridgetown,5/29/2002
28,50,36,2,1,77.77,6,bowled,1,West Indies,Port of Spain,6/1/2002
20,38,34,1,0,58.82,5,caught,1,West Indies,Port of Spain,6/2/2002
73,113,86,7,0,84.88,5,not out,2,England,Lord's,6/29/2002
8,29,26,0,0,30.76,5,bowled,2,Sri Lanka,The Oval,6/30/2002
82,130,117,7,0,70.08,5,caught,1,England,Chester-le-Street,7/4/2002
64,144,95,5,1,67.36,5,run out,2,Sri Lanka,Birmingham,7/6/2002
13,20,16,1,0,81.25,5,lbw,1,Sri Lanka,Bristol,7/11/2002
5,8,12,0,0,41.66,5,caught,2,England,Lord's,7/13/2002
71,108,81,6,0,87.65,5,run out,1,Zimbabwe,Colombo (RPS),9/14/2002
49,82,67,2,0,73.13,5,lbw,1,South Africa,Colombo (RPS),9/25/2002
46,82,42,2,0,109.52,5,not out,1,West Indies,Jamshedpur,11/6/2002
51,63,42,6,0,121.42,6,run out,1,West Indies,Nagpur,11/9/2002
109,201,124,8,0,87.9,4,not out,2,West Indies,Ahmedabad,11/15/2002
33,37,36,3,0,91.66,4,caught,1,West Indies,Vadodara,11/18/2002
58,110,82,5,0,70.73,4,caught,2,West Indies,Jodhpur,11/21/2002
3,-,8,0,0,37.5,4,caught,2,West Indies,Vijayawada,11/24/2002
20,79,51,2,0,39.21,5,caught,1,New Zealand,Auckland,12/26/2002
18,35,27,1,0,66.66,4,run out,2,New Zealand,Napier,12/29/2002
20,69,59,2,0,33.89,4,caught,1,New Zealand,Christchurch,1/1/2003
18,65,52,1,0,34.61,2,bowled,1,New Zealand,Queenstown,1/4/2003
7,72,41,0,0,17.07,5,caught,2,New Zealand,Wellington,1/8/2003
21,71,50,2,0,42,3,lbw,2,New Zealand,Auckland,1/11/2003
12,30,26,2,0,46.15,5,caught,1,New Zealand,Hamilton,1/14/2003
17,45,38,0,0,44.73,4,bowled,1,Netherlands,Paarl,2/12/2003
1,27,23,0,0,4.34,4,bowled,1,Australia,Centurion,2/15/2003
43,87,55,2,0,78.18,5,not out,1,Zimbabwe,Harare,2/19/2003
62,110,72,3,1,86.11,5,caught,1,England,Durban,2/26/2003
44,124,76,2,0,57.89,5,not out,2,Pakistan,Centurion,3/1/2003
32,91,73,3,0,43.83,5,caught,2,Kenya,Cape Town,3/7/2003
18,22,12,2,0,150,6,not out,1,Sri Lanka,Johannesburg,3/10/2003
53,143,89,7,0,59.55,5,not out,2,New Zealand,Centurion,3/14/2003
1,3,1,0,0,100,6,not out,1,Kenya,Durban,3/20/2003
47,87,57,2,0,82.45,5,bowled,2,Australia,Johannesburg,3/23/2003
4,7,6,0,0,66.66,4,caught,1,New Zealand,Chennai,10/23/2003
59,96,70,8,0,84.28,4,caught,2,Australia,Mumbai,11/1/2003
31,45,41,2,0,75.6,4,caught,1,New Zealand,Cuttack,11/6/2003
34,49,34,3,0,100,5,caught,2,Australia,Bangalore,11/12/2003
50,29,22,5,3,227.27,5,not out,1,New Zealand,Hyderabad (Deccan),11/15/2003
49,113,69,4,0,71.01,4,bowled,2,Australia,Kolkata,11/18/2003
16,18,19,1,0,84.21,5,caught,2,Australia,Melbourne,1/9/2004
74,76,64,4,0,115.62,4,caught,1,Australia,Brisbane,1/18/2004
84,131,106,3,0,79.24,4,caught,1,Zimbabwe,Brisbane,1/20/2004
12,14,7,3,0,171.42,4,caught,1,Australia,Sydney,1/22/2004
56,95,72,4,0,77.77,5,caught,1,Zimbabwe,Adelaide,1/24/2004
13,61,38,2,0,34.21,4,caught,1,Australia,Perth,2/1/2004
10,29,24,2,0,41.66,4,bowled,2,Zimbabwe,Perth,2/3/2004
12,43,29,3,0,41.37,4,caught,1,Australia,Melbourne,2/6/2004
0,17,11,0,0,0,5,run out,2,Australia,Sydney,2/8/2004
99,127,104,8,0,95.19,4,bowled,1,Pakistan,Karachi,3/13/2004
36,74,45,2,0,80,5,bowled,2,Pakistan,Rawalpindi,3/16/2004
33,106,86,4,0,38.37,4,caught,1,Pakistan,Peshawar,3/19/2004
76,141,92,9,0,82.6,5,not out,2,Pakistan,Lahore,3/21/2004
4,18,10,0,0,40,5,bowled,1,Pakistan,Lahore,3/24/2004
104,120,93,8,0,111.82,5,bowled,1,U.A.E.,Dambulla,7/16/2004
82,136,100,8,1,82,5,bowled,2,Sri Lanka,Dambulla,7/18/2004
5,16,9,0,0,55.55,4,lbw,2,Pakistan,Colombo (RPS),7/25/2004
1,5,7,0,0,14.28,4,caught,1,Sri Lanka,Colombo (RPS),7/27/2004
16,24,28,0,0,57.14,5,caught,2,Sri Lanka,Colombo (RPS),8/1/2004
0,5,1,0,0,0,4,run out,2,Pakistan,Amstelveen,8/21/2004
13,19,16,3,0,81.25,4,caught,1,England,Nottingham,9/1/2004
1,11,8,0,0,12.5,5,caught,2,England,The Oval,9/3/2004
52,126,92,3,0,56.52,5,caught,1,England,Lord's,9/5/2004
30,22,16,3,1,187.5,6,not out,1,Kenya,Southampton,9/11/2004
67,158,108,4,0,62.03,5,caught,1,Pakistan,Birmingham,9/19/2004
16,41,34,1,0,47.05,5,caught,1,Pakistan,Kolkata,11/13/2004
53,121,80,5,0,66.25,4,caught,1,Bangladesh,Chittagong,12/23/2004
60,87,68,5,0,88.23,4,caught,1,Bangladesh,Dhaka,12/27/2004
75,118,71,5,0,105.63,4,not out,2,ICC World XI,Melbourne,1/10/2005
104,199,139,6,0,74.82,4,run out,1,Pakistan,Kochi,4/2/2005
52,83,59,3,0,88.13,5,caught,1,Pakistan,Visakhapatnam,4/5/2005
28,52,30,4,0,93.33,5,caught,2,Pakistan,Jamshedpur,4/9/2005
19,24,13,3,0,146.15,5,caught,1,Pakistan,Ahmedabad,4/12/2005
86,183,115,8,0,74.78,4,run out,1,Pakistan,Kanpur,4/15/2005
19,27,29,3,0,65.51,4,run out,2,Pakistan,Delhi,4/17/2005
54,116,96,6,0,56.25,4,bowled,1,Sri Lanka,Dambulla,7/30/2005
52,97,65,7,0,80,4,not out,2,West Indies,Dambulla,7/31/2005
0,3,1,0,0,0,5,lbw,1,Sri Lanka,Dambulla,8/3/2005
10,43,26,2,0,38.46,4,bowled,1,West Indies,Colombo (RPS),8/7/2005
69,137,99,3,0,69.69,3,run out,2,Sri Lanka,Colombo (RPS),8/9/2005
5,10,9,1,0,55.55,4,bowled,2,New Zealand,Bulawayo,8/26/2005
14,-,30,1,0,46.66,4,bowled,1,Zimbabwe,Harare,8/29/2005
39,-,61,5,0,63.93,4,bowled,2,New Zealand,Harare,9/2/2005
6,12,11,1,0,54.54,4,bowled,2,Zimbabwe,Harare,9/4/2005
0,2,2,0,0,0,4,lbw,1,New Zealand,Harare,9/6/2005
4,30,14,0,0,28.57,5,caught,2,Australia,Melbourne (Docklands),10/5/2005
26,67,35,2,0,74.28,6,bowled,2,Australia,Melbourne (Docklands),10/7/2005
16,50,38,1,0,42.1,7,caught,2,Australia,Melbourne (Docklands),10/9/2005
85,76,63,8,1,134.92,5,not out,1,Sri Lanka,Nagpur,10/25/2005
2,10,5,0,0,40,4,not out,2,Sri Lanka,Mohali,10/28/2005
28,55,34,2,0,82.35,4,caught,2,Sri Lanka,Jaipur,10/31/2005
63,103,72,7,0,87.5,4,caught,2,Sri Lanka,Pune,11/3/2005
103,157,120,8,1,85.83,5,not out,1,Sri Lanka,Ahmedabad,11/6/2005
31,67,48,2,0,64.58,6,not out,2,Sri Lanka,Vadodara,11/12/2005
8,34,24,1,0,33.33,4,bowled,1,South Africa,Hyderabad (Deccan),11/16/2005
10,34,17,0,0,58.82,5,caught,2,South Africa,Bangalore,11/19/2005
6,54,31,1,0,19.35,5,bowled,1,South Africa,Kolkata,11/25/2005
78,186,106,10,0,73.58,4,not out,2,South Africa,Mumbai,11/28/2005
18,17,14,2,0,128.57,6,lbw,1,Pakistan,Peshawar,2/6/2006
56,100,61,5,0,91.8,3,caught,2,Pakistan,Rawalpindi,2/11/2006
22,74,42,4,0,52.38,4,run out,2,Pakistan,Lahore,2/13/2006
59,113,72,9,0,81.94,3,lbw,2,Pakistan,Multan,2/16/2006
50,128,82,6,0,60.97,2,caught,2,Pakistan,Karachi,2/19/2006
34,77,50,7,0,68,3,bowled,1,England,Delhi,3/28/2006
5,30,23,0,0,21.73,3,run out,2,England,Faridabad,3/31/2006
46,101,59,6,0,77.96,2,bowled,1,England,Margao,4/3/2006
65,109,73,9,0,89.04,2,caught,2,England,Kochi,4/6/2006
69,126,79,9,0,87.34,2,lbw,2,England,Indore,4/15/2006
20,64,29,3,0,68.96,2,run out,1,Pakistan,Abu Dhabi,4/18/2006
92,189,116,10,0,79.31,2,bowled,1,Pakistan,Abu Dhabi,4/19/2006
105,184,102,10,2,102.94,2,caught,2,West Indies,Kingston,5/18/2006
11,46,22,1,0,50,1,caught,2,West Indies,Kingston,5/20/2006
0,-,4,0,0,0,2,lbw,1,West Indies,Basseterre,5/23/2006
15,-,38,1,0,39.47,2,caught,1,West Indies,Port of Spain,5/26/2006
18,-,25,3,0,72,4,run out,2,West Indies,Port of Spain,5/28/2006
9,16,19,2,0,47.36,1,not out,1,Sri Lanka,Colombo (SSC),8/18/2006
26,76,38,3,0,68.42,1,lbw,1,West Indies,Kuala Lumpur,9/14/2006
6,24,22,1,0,27.27,1,caught,2,Australia,Kuala Lumpur,9/16/2006
0,2,3,0,0,0,1,caught,1,West Indies,Kuala Lumpur,9/20/2006
7,36,21,1,0,33.33,4,lbw,2,Australia,Kuala Lumpur,9/22/2006
4,3,3,1,0,133.33,4,caught,2,England,Jaipur,10/15/2006
49,115,67,6,0,73.13,4,run out,1,West Indies,Ahmedabad,10/26/2006
52,91,63,6,0,82.53,4,caught,1,Australia,Mohali,10/29/2006
18,32,25,3,0,72,4,bowled,2,South Africa,Durban,11/22/2006
63,179,103,4,1,61.16,3,caught,2,South Africa,Cape Town,11/26/2006
54,48,35,4,3,154.28,5,not out,1,West Indies,Nagpur,1/21/2007
22,44,34,4,0,64.7,3,bowled,1,West Indies,Cuttack,1/24/2007
57,72,67,6,0,85.07,5,caught,1,West Indies,Chennai,1/27/2007
78,160,109,7,0,71.55,3,caught,1,West Indies,Vadodara,1/31/2007
5,8,9,1,0,55.55,3,bowled,2,Sri Lanka,Rajkot,2/11/2007
66,109,82,4,1,80.48,5,run out,2,Sri Lanka,Margao,2/14/2007
14,31,28,0,0,50,5,lbw,1,Bangladesh,Port of Spain,3/17/2007
7,5,2,0,1,350,7,not out,1,Bermuda,Port of Spain,3/19/2007
60,111,82,6,0,73.17,5,caught,2,Sri Lanka,Port of Spain,3/23/2007
22,48,39,2,0,56.41,5,caught,2,Bangladesh,Dhaka,5/10/2007
42,82,47,1,0,89.36,5,not out,1,Bangladesh,Dhaka,5/12/2007
74,135,93,6,0,79.56,4,bowled,1,South Africa,Belfast,6/26/2007
2,10,10,0,0,20,3,caught,2,South Africa,Belfast,6/29/2007
36,87,49,4,0,73.46,4,run out,2,South Africa,Belfast,7/1/2007
10,-,8,2,0,125,5,not out,2,Scotland,Glasgow,8/16/2007
46,112,72,2,1,63.88,4,caught,2,England,Southampton,8/21/2007
92,88,63,11,1,146.03,4,not out,1,England,Bristol,8/24/2007
56,72,61,7,1,91.8,4,bowled,2,England,Birmingham,8/27/2007
1,6,8,0,0,12.5,4,caught,1,England,Manchester,8/30/2007
24,41,17,3,1,141.17,6,run out,1,England,Leeds,9/2/2007
4,3,5,0,0,80,5,caught,2,England,The Oval,9/5/2007
0,5,3,0,0,0,4,caught,1,England,Lord's,9/8/2007
31,57,48,3,1,64.58,5,caught,2,Australia,Kochi,10/2/2007
0,5,4,0,0,0,4,caught,2,Australia,Hyderabad (Deccan),10/5/2007
13,15,14,2,0,92.85,5,bowled,1,Australia,Chandigarh,10/8/2007
0,1,1,0,0,0,3,lbw,1,Australia,Vadodara,10/11/2007
7,32,13,0,0,53.84,4,caught,2,Australia,Nagpur,10/14/2007
14,65,45,1,0,31.11,3,lbw,2,New Zealand,Colombo (RPS),9/11/2009
47,93,56,3,1,83.92,3,bowled,2,Sri Lanka,Colombo (RPS),9/12/2009
39,80,56,2,1,69.64,1,caught,1,Sri Lanka,Colombo (RPS),9/14/2009
76,160,103,4,0,73.78,3,run out,2,Pakistan,Centurion,9/26/2009
4,1,2,1,0,200,3,run out,2,West Indies,Johannesburg,9/30/2009
2,8,6,0,0,33.33,3,caught,1,England,Chester-le-Street,9/3/2011
32,50,31,2,0,103.22,3,caught,1,England,Southampton,9/6/2011
2,19,11,0,0,18.18,3,run out,1,England,The Oval,9/9/2011
19,54,33,3,0,57.57,3,caught,1,England,Lord's,9/11/2011
69,107,79,4,0,87.34,3,bowled,1,England,Cardiff,9/16/2011